{
    "/css/app.css": "/css/app.css",
    "/js/mini-catequiz.min.js": "/js/mini-catequiz.min.js",
    "/js/plyr.min.js": "/js/plyr.min.js",
    "/js/bulma-calendar.min.js": "/js/bulma-calendar.min.js"
}
